{
  "prepare_queue": {
    "installed": [],
    "uninstalled": []
  },
  "config_munge": {
    "files": {}
  },
  "installed_plugins": {
    "cordova-plugin-keyboard": {
      "PACKAGE_NAME": "io.framework7.myapp"
    },
    "cordova-plugin-splashscreen": {
      "PACKAGE_NAME": "io.framework7.myapp"
    },
    "cordova-plugin-statusbar": {
      "PACKAGE_NAME": "io.framework7.myapp"
    },
    "cordova-plugin-whitelist": {
      "PACKAGE_NAME": "io.framework7.myapp"
    },
    "cordova-plugin-wkwebview-engine": {
      "PACKAGE_NAME": "io.framework7.myapp"
    },
    "cordova-plugin-file": {
      "PACKAGE_NAME": "io.framework7.myapp"
    }
  },
  "dependent_plugins": {}
}
